<?xml version="1.0" encoding="UTF-8" standalone="no"?>
<svg xmlns:dc="http://purl.org/dc/elements/1.1/" xmlns:cc="http://creativecommons.org/ns#" xmlns:rdf="http://www.w3.org/1999/02/22-rdf-syntax-ns#" xmlns:svg="http://www.w3.org/2000/svg" xmlns="http://www.w3.org/2000/svg" xmlns:sodipodi="http://sodipodi.sourceforge.net/DTD/sodipodi-0.dtd" xmlns:inkscape="http://www.inkscape.org/namespaces/inkscape" width="97.900016784668" height="64.238990783691" viewBox="0 0 97.900016784668 64.238990783691" version="1.1" id="svg7" sodipodi:docname="fedi-foundation-logo.svg" inkscape:version="0.92.5 (0.92.5+69)" style="fill:none">
  <metadata id="metadata13">
    <rdf:RDF>
      <cc:Work rdf:about="">
        <dc:format>image/svg+xml</dc:format>
        <dc:type rdf:resource="http://purl.org/dc/dcmitype/StillImage" />
        <dc:title />
      </cc:Work>
    </rdf:RDF>
  </metadata>
  <defs id="defs11" />
  <sodipodi:namedview pagecolor="#ffffff" bordercolor="#666666" borderopacity="1" objecttolerance="10" gridtolerance="10" guidetolerance="10" inkscape:pageopacity="0" inkscape:pageshadow="2" inkscape:window-width="1822" inkscape:window-height="969" id="namedview9" showgrid="false" inkscape:zoom="9.8333333333333" inkscape:cx="-1.4350599676879" inkscape:cy="30.28898659399" inkscape:window-x="2289" inkscape:window-y="265" inkscape:window-maximized="0" inkscape:current-layer="svg7" fit-margin-top="0" fit-margin-left="0" fit-margin-right="0" fit-margin-bottom="0" />
  <g id="g944" transform="translate(23.068647384644,6.3567838507194)">
    <g transform="rotate(-45,22.843353531818,40.796979090177)" id="g831-9">
      <path id="Stroke 1-7" d="M 21.2502,12 C 21.2502,18.937 18.9372,21.25 12.0002,21.25 5.06324,21.25 2.75024,18.937 2.75024,12 2.75024,5.063 5.06324,2.75 12.0002,2.75 18.9372,2.75 21.2502,5.063 21.2502,12 Z" inkscape:connector-curvature="0" style="clip-rule:evenodd;fill-rule:evenodd;stroke:#f1007e;stroke-width:1.5;stroke-linecap:round;stroke-linejoin:round" />
    </g>
    <g aria-label="F" style="font-style:normal;font-weight:normal;font-size:40px;line-height:125%;font-family:sans-serif;letter-spacing:0px;word-spacing:0px;fill:#f1007e;fill-opacity:1;stroke:none;stroke-width:1px;stroke-linecap:butt;stroke-linejoin:miter;stroke-opacity:1" id="text876">
      <path d="M -1.7407913885117,23.294124780178 V 24.347458088398 H -6.3341246123314 V 27.687458008766 H -2.4074580392838 V 28.740791316986 H -6.3341246123314 V 32.847457885742 H -7.6274579148293 V 23.294124780178 Z" style="font-style:normal;font-variant:normal;font-weight:normal;font-stretch:normal;font-size:13.3333330154px;font-family:Lato;-inkscape-font-specification:Lato" id="path837" />
    </g>
  </g>
  <g id="g930" transform="translate(23.068647384644,5.6788177490234)">
    <g transform="rotate(-45,12.00022,12)" id="g831">
      <path id="Stroke 1" d="M 21.2502,12 C 21.2502,18.937 18.9372,21.25 12.0002,21.25 5.06324,21.25 2.75024,18.937 2.75024,12 2.75024,5.063 5.06324,2.75 12.0002,2.75 18.9372,2.75 21.2502,5.063 21.2502,12 Z" inkscape:connector-curvature="0" style="clip-rule:evenodd;fill-rule:evenodd;stroke:#00f53d;stroke-width:1.5;stroke-linecap:round;stroke-linejoin:round" />
    </g>
    <g aria-label="E" style="font-style:normal;font-weight:normal;font-size:40px;line-height:125%;font-family:sans-serif;letter-spacing:0px;word-spacing:0px;fill:#00f53d;fill-opacity:1;stroke:none;stroke-width:1px;stroke-linecap:butt;stroke-linejoin:miter;stroke-opacity:1" id="text876-6">
      <path d="M 14.960739068031,7.1216394286156 V 8.1749727368355 H 10.367405844212 V 11.348305994511 H 14.08740575552 V 12.361639303684 H 10.367405844212 V 15.62163922596 H 14.967405734539 L 14.960739068031,16.67497253418 H 9.0740725417137 V 7.1216394286156 Z" style="font-style:normal;font-variant:normal;font-weight:normal;font-stretch:normal;font-size:13.3333330154px;font-family:Lato;-inkscape-font-specification:Lato" id="path840" />
    </g>
  </g>
  <g id="g937" transform="translate(23.068647384644,5.7127160541108)">
    <g transform="rotate(-45,40.705557899359,-0.12721194155164)" id="g831-6">
      <path id="Stroke 1-4" d="M 21.2502,12 C 21.2502,18.937 18.9372,21.25 12.0002,21.25 5.06324,21.25 2.75024,18.937 2.75024,12 2.75024,5.063 5.06324,2.75 12.0002,2.75 18.9372,2.75 21.2502,5.063 21.2502,12 Z" inkscape:connector-curvature="0" style="clip-rule:evenodd;fill-rule:evenodd;stroke:#fdbe49;stroke-width:1.5;stroke-linecap:round;stroke-linejoin:round" />
    </g>
    <g aria-label="D" style="font-style:normal;font-weight:normal;font-size:40px;line-height:125%;font-family:sans-serif;letter-spacing:0px;word-spacing:0px;fill:#fdbe49;fill-opacity:1;stroke:none;stroke-width:1px;stroke-linecap:butt;stroke-linejoin:miter;stroke-opacity:1" id="text876-0">
      <path d="M 33.811240923405,28.884686800003 Q 33.811240923405,29.958020107746 33.471240931511,30.838020086765 33.131240939617,31.718020065784 32.511240954399,32.34468671751 31.891240969181,32.971353369236 31.01790765667,33.318020027637 30.151241010666,33.658020019531 29.097907702446,33.658020019531 H 25.531241120815 V 24.104686913967 H 29.097907702446 Q 30.151241010666,24.104686913967 31.01790765667,24.451353572369 31.891240969181,24.791353564262 32.511240954399,25.424686882496 33.131240939617,26.051353534222 33.471240931511,26.931353513241 33.811240923405,27.81135349226 33.811240923405,28.884686800003 Z M 32.484574288368,28.884686800003 Q 32.484574288368,28.004686820984 32.24457429409,27.311353504181 32.004574299812,26.618020187378 31.564574310303,26.138020198822 31.124574320793,25.658020210266 30.497907669067,25.404686882973 29.871241017342,25.151353555679 29.097907702446,25.151353555679 H 26.824574423313 V 32.611353377819 H 29.097907702446 Q 29.871241017342,32.611353377819 30.497907669067,32.358020050526 31.124574320793,32.104686723232 31.564574310303,31.631353401184 32.004574299812,31.151353412628 32.24457429409,30.458020095825 32.484574288368,29.764686779022 32.484574288368,28.884686800003 Z" style="font-style:normal;font-variant:normal;font-weight:normal;font-stretch:normal;font-size:13.3333330154px;font-family:Lato;-inkscape-font-specification:Lato" id="path843" />
    </g>
  </g>
  <g id="g923" transform="translate(31.983901621932,22.255088935464)">
    <g transform="rotate(-45,29.126977925836,-28.6532409818)" id="g831-8">
      <path id="Stroke 1-8" d="M 21.2502,12 C 21.2502,18.937 18.9372,21.25 12.0002,21.25 5.06324,21.25 2.75024,18.937 2.75024,12 2.75024,5.063 5.06324,2.75 12.0002,2.75 18.9372,2.75 21.2502,5.063 21.2502,12 Z" inkscape:connector-curvature="0" style="clip-rule:evenodd;fill-rule:evenodd;stroke:#2fd7da;stroke-width:1.5;stroke-linecap:round;stroke-linejoin:round" />
    </g>
    <g aria-label="I" style="font-style:normal;font-weight:normal;font-size:40px;line-height:125%;font-family:sans-serif;letter-spacing:0px;word-spacing:0px;fill:#2fd7da;fill-opacity:1;stroke:none;stroke-width:1px;stroke-linecap:butt;stroke-linejoin:miter;stroke-opacity:1" id="text876-5">
      <path d="M 46.350003195286,17.386835098267 H 45.056669892788 V 7.8335019927025 H 46.350003195286 Z" style="font-style:normal;font-variant:normal;font-weight:normal;font-stretch:normal;font-size:13.3333330154px;font-family:Lato;-inkscape-font-specification:Lato" id="path846" />
    </g>
  </g>
  <g aria-label="foundation" style="font-style:normal;font-weight:normal;font-size:40px;line-height:125%;font-family:sans-serif;letter-spacing:0px;word-spacing:0px;fill:black;fill-opacity:1;stroke:none;stroke-width:1px;stroke-linecap:butt;stroke-linejoin:miter;stroke-opacity:1" id="text916">
    <path d="M 12.65685067749,60.18729019165 V 53.29929019165 L 11.76085067749,53.19529019165 Q 11.59285067749,53.15529019165 11.48085067749,53.07529019165 11.37685067749,52.98729019165 11.37685067749,52.82729019165 V 52.24329019165 H 12.65685067749 V 51.45929019165 Q 12.65685067749,50.76329019165 12.84885067749,50.22729019165 13.04885067749,49.68329019165 13.40885067749,49.31529019165 13.77685067749,48.93929019165 14.28885067749,48.74729019165 14.80085067749,48.55529019165 15.44085067749,48.55529019165 15.98485067749,48.55529019165 16.44085067749,48.71529019165 L 16.40885067749,49.42729019165 Q 16.39285067749,49.61929019165 16.19285067749,49.63529019165 16.00085067749,49.65129019165 15.67285067749,49.65129019165 15.30485067749,49.65129019165 15.00085067749,49.74729019165 14.70485067749,49.84329019165 14.48885067749,50.05929019165 14.27285067749,50.27529019165 14.15285067749,50.62729019165 14.04085067749,50.97929019165 14.04085067749,51.49929019165 V 52.24329019165 H 16.37685067749 V 53.27529019165 H 14.08885067749 V 60.18729019165 Z" style="font-style:normal;font-variant:normal;font-weight:normal;font-stretch:normal;font-size:16px;font-family:Lato;-inkscape-font-specification:Lato;fill:#f2f5ff;fill-opacity:0.9411764706" id="path849" />
    <path d="M 20.88860067749,51.95529019165 Q 21.77660067749,51.95529019165 22.48860067749,52.25129019165 23.20060067749,52.54729019165 23.70460067749,53.09129019165 24.20860067749,53.63529019165 24.47260067749,54.41129019165 24.74460067749,55.17929019165 24.74460067749,56.13129019165 24.74460067749,57.09129019165 24.47260067749,57.85929019165 24.20860067749,58.62729019165 23.70460067749,59.17129019165 23.20060067749,59.71529019165 22.48860067749,60.01129019165 21.77660067749,60.29929019165 20.88860067749,60.29929019165 19.99260067749,60.29929019165 19.27260067749,60.01129019165 18.56060067749,59.71529019165 18.05660067749,59.17129019165 17.55260067749,58.62729019165 17.28060067749,57.85929019165 17.01660067749,57.09129019165 17.01660067749,56.13129019165 17.01660067749,55.17929019165 17.28060067749,54.41129019165 17.55260067749,53.63529019165 18.05660067749,53.09129019165 18.56060067749,52.54729019165 19.27260067749,52.25129019165 19.99260067749,51.95529019165 20.88860067749,51.95529019165 Z M 20.88860067749,59.18729019165 Q 22.08860067749,59.18729019165 22.68060067749,58.38729019165 23.27260067749,57.57929019165 23.27260067749,56.13929019165 23.27260067749,54.69129019165 22.68060067749,53.88329019165 22.08860067749,53.07529019165 20.88860067749,53.07529019165 20.28060067749,53.07529019165 19.82460067749,53.28329019165 19.37660067749,53.49129019165 19.07260067749,53.88329019165 18.77660067749,54.27529019165 18.62460067749,54.85129019165 18.48060067749,55.41929019165 18.48060067749,56.13929019165 18.48060067749,57.57929019165 19.07260067749,58.38729019165 19.67260067749,59.18729019165 20.88860067749,59.18729019165 Z" style="font-style:normal;font-variant:normal;font-weight:normal;font-stretch:normal;font-size:16px;font-family:Lato;-inkscape-font-specification:Lato;fill:#f2f5ff;fill-opacity:0.9411764706" id="path851" />
    <path d="M 27.87910067749,52.08329019165 V 57.25129019165 Q 27.87910067749,58.17129019165 28.29510067749,58.67529019165 28.71910067749,59.17929019165 29.58310067749,59.17929019165 30.20710067749,59.17929019165 30.75910067749,58.88329019165 31.31110067749,58.58729019165 31.77510067749,58.05929019165 V 52.08329019165 H 33.19910067749 V 60.18729019165 H 32.35110067749 Q 32.04710067749,60.18729019165 31.96710067749,59.89129019165 L 31.85510067749,59.01929019165 Q 31.32710067749,59.60329019165 30.67110067749,59.96329019165 30.01510067749,60.31529019165 29.16710067749,60.31529019165 28.50310067749,60.31529019165 27.99110067749,60.09929019165 27.48710067749,59.87529019165 27.14310067749,59.47529019165 26.79910067749,59.07529019165 26.62310067749,58.50729019165 26.45510067749,57.93929019165 26.45510067749,57.25129019165 V 52.08329019165 Z" style="font-style:normal;font-variant:normal;font-weight:normal;font-stretch:normal;font-size:16px;font-family:Lato;-inkscape-font-specification:Lato;fill:#f2f5ff;fill-opacity:0.9411764706" id="path853" />
    <path d="M 35.44135067749,60.18729019165 V 52.08329019165 H 36.29735067749 Q 36.60135067749,52.08329019165 36.67335067749,52.37929019165 L 36.78535067749,53.25929019165 Q 37.31335067749,52.67529019165 37.96935067749,52.31529019165 38.62535067749,51.95529019165 39.48135067749,51.95529019165 40.14535067749,51.95529019165 40.64935067749,52.17929019165 41.16135067749,52.39529019165 41.49735067749,52.80329019165 41.84135067749,53.20329019165 42.01735067749,53.77129019165 42.19335067749,54.33929019165 42.19335067749,55.02729019165 V 60.18729019165 H 40.76135067749 V 55.02729019165 Q 40.76135067749,54.10729019165 40.33735067749,53.60329019165 39.92135067749,53.09129019165 39.06535067749,53.09129019165 38.42535067749,53.09129019165 37.87335067749,53.39529019165 37.32935067749,53.69929019165 36.87335067749,54.21929019165 V 60.18729019165 Z" style="font-style:normal;font-variant:normal;font-weight:normal;font-stretch:normal;font-size:16px;font-family:Lato;-inkscape-font-specification:Lato;fill:#f2f5ff;fill-opacity:0.9411764706" id="path855" />
    <path d="M 50.23485067749,60.18729019165 Q 49.93085067749,60.18729019165 49.85085067749,59.89129019165 L 49.72285067749,58.90729019165 Q 49.20285067749,59.53929019165 48.53085067749,59.92329019165 47.86685067749,60.29929019165 47.00285067749,60.29929019165 46.30685067749,60.29929019165 45.73885067749,60.03529019165 45.17085067749,59.76329019165 44.77085067749,59.24329019165 44.37085067749,58.72329019165 44.15485067749,57.94729019165 43.93885067749,57.17129019165 43.93885067749,56.16329019165 43.93885067749,55.26729019165 44.17885067749,54.49929019165 44.41885067749,53.72329019165 44.86685067749,53.15529019165 45.31485067749,52.58729019165 45.96285067749,52.26729019165 46.61885067749,51.93929019165 47.43485067749,51.93929019165 48.17885067749,51.93929019165 48.70685067749,52.19529019165 49.24285067749,52.44329019165 49.65885067749,52.89929019165 V 48.40329019165 H 51.08285067749 V 60.18729019165 Z M 47.46685067749,59.14729019165 Q 48.17085067749,59.14729019165 48.69085067749,58.82729019165 49.21885067749,58.50729019165 49.65885067749,57.92329019165 V 54.01129019165 Q 49.25885067749,53.48329019165 48.79485067749,53.26729019165 48.33085067749,53.05129019165 47.75485067749,53.05129019165 46.62685067749,53.05129019165 46.01885067749,53.85929019165 45.41085067749,54.66729019165 45.41085067749,56.16329019165 45.41085067749,56.95529019165 45.54685067749,57.52329019165 45.68285067749,58.08329019165 45.94685067749,58.45129019165 46.21085067749,58.81129019165 46.59485067749,58.97929019165 46.97885067749,59.14729019165 47.46685067749,59.14729019165 Z" style="font-style:normal;font-variant:normal;font-weight:normal;font-stretch:normal;font-size:16px;font-family:Lato;-inkscape-font-specification:Lato;fill:#f2f5ff;fill-opacity:0.9411764706" id="path857" />
    <path d="M 58.49960067749,60.18729019165 Q 58.29160067749,60.18729019165 58.17960067749,60.12329019165 58.06760067749,60.05129019165 58.00360067749,59.85129019165 L 57.84360067749,59.09129019165 Q 57.52360067749,59.37929019165 57.21160067749,59.61129019165 56.90760067749,59.83529019165 56.57160067749,59.99529019165 56.24360067749,60.14729019165 55.85960067749,60.22729019165 55.48360067749,60.31529019165 55.01960067749,60.31529019165 54.54760067749,60.31529019165 54.13160067749,60.18729019165 53.71560067749,60.05129019165 53.40360067749,59.78729019165 53.09960067749,59.52329019165 52.91560067749,59.12329019165 52.73960067749,58.71529019165 52.73960067749,58.16329019165 52.73960067749,57.68329019165 53.00360067749,57.24329019165 53.26760067749,56.79529019165 53.85960067749,56.45129019165 54.45160067749,56.10729019165 55.40360067749,55.89129019165 56.35560067749,55.66729019165 57.73960067749,55.63529019165 V 55.00329019165 Q 57.73960067749,54.05929019165 57.33160067749,53.57929019165 56.92360067749,53.09129019165 56.13960067749,53.09129019165 55.61160067749,53.09129019165 55.25160067749,53.22729019165 54.89960067749,53.35529019165 54.63560067749,53.52329019165 54.37960067749,53.68329019165 54.18760067749,53.81929019165 54.00360067749,53.94729019165 53.81960067749,53.94729019165 53.67560067749,53.94729019165 53.57160067749,53.87529019165 53.46760067749,53.79529019165 53.39560067749,53.68329019165 L 53.13960067749,53.22729019165 Q 53.81160067749,52.57929019165 54.58760067749,52.25929019165 55.36360067749,51.93929019165 56.30760067749,51.93929019165 56.98760067749,51.93929019165 57.51560067749,52.16329019165 58.04360067749,52.38729019165 58.40360067749,52.78729019165 58.76360067749,53.18729019165 58.94760067749,53.75529019165 59.13160067749,54.32329019165 59.13160067749,55.00329019165 V 60.18729019165 Z M 55.44360067749,59.31529019165 Q 55.81960067749,59.31529019165 56.13160067749,59.24329019165 56.44360067749,59.16329019165 56.71560067749,59.02729019165 56.99560067749,58.88329019165 57.24360067749,58.68329019165 57.49960067749,58.47529019165 57.73960067749,58.21929019165 V 56.53929019165 Q 56.75560067749,56.57129019165 56.05960067749,56.69929019165 55.37160067749,56.81929019165 54.93160067749,57.01929019165 54.49960067749,57.21929019165 54.29960067749,57.49129019165 54.10760067749,57.76329019165 54.10760067749,58.09929019165 54.10760067749,58.41929019165 54.21160067749,58.65129019165 54.31560067749,58.88329019165 54.49160067749,59.03529019165 54.67560067749,59.17929019165 54.91560067749,59.25129019165 55.16360067749,59.31529019165 55.44360067749,59.31529019165 Z" style="font-style:normal;font-variant:normal;font-weight:normal;font-stretch:normal;font-size:16px;font-family:Lato;-inkscape-font-specification:Lato;fill:#f2f5ff;fill-opacity:0.9411764706" id="path859" />
    <path d="M 60.40735067749,60.18729019165 Z M 63.67935067749,60.31529019165 Q 62.71935067749,60.31529019165 62.19935067749,59.77929019165 61.68735067749,59.24329019165 61.68735067749,58.23529019165 V 53.27529019165 H 60.71135067749 Q 60.58335067749,53.27529019165 60.49535067749,53.20329019165 60.40735067749,53.12329019165 60.40735067749,52.96329019165 V 52.39529019165 L 61.73535067749,52.22729019165 62.06335067749,49.72329019165 Q 62.08735067749,49.60329019165 62.16735067749,49.53129019165 62.25535067749,49.45129019165 62.39135067749,49.45129019165 H 63.11135067749 V 52.24329019165 H 68.71135067749 V 60.18729019165 H 67.28735067749 V 53.27529019165 H 63.11135067749 V 58.13929019165 Q 63.11135067749,58.65129019165 63.35935067749,58.89929019165 63.60735067749,59.14729019165 63.99935067749,59.14729019165 64.22335067749,59.14729019165 64.38335067749,59.09129019165 64.55135067749,59.02729019165 64.67135067749,58.95529019165 64.79135067749,58.88329019165 64.87135067749,58.82729019165 64.95935067749,58.76329019165 65.02335067749,58.76329019165 65.13535067749,58.76329019165 65.22335067749,58.89929019165 L 65.63935067749,59.57929019165 Q 65.27135067749,59.92329019165 64.75135067749,60.12329019165 64.23135067749,60.31529019165 63.67935067749,60.31529019165 Z M 69.06335067749,49.48329019165 Q 69.06335067749,49.69129019165 68.97535067749,49.87529019165 68.89535067749,50.05129019165 68.75135067749,50.18729019165 68.61535067749,50.32329019165 68.43135067749,50.40329019165 68.24735067749,50.48329019165 68.03935067749,50.48329019165 67.83135067749,50.48329019165 67.64735067749,50.40329019165 67.47135067749,50.32329019165 67.33535067749,50.18729019165 67.19935067749,50.05129019165 67.11935067749,49.87529019165 67.03935067749,49.69129019165 67.03935067749,49.48329019165 67.03935067749,49.27529019165 67.11935067749,49.09129019165 67.19935067749,48.89929019165 67.33535067749,48.76329019165 67.47135067749,48.61929019165 67.64735067749,48.53929019165 67.83135067749,48.45929019165 68.03935067749,48.45929019165 68.24735067749,48.45929019165 68.43135067749,48.53929019165 68.61535067749,48.61929019165 68.75135067749,48.76329019165 68.89535067749,48.89929019165 68.97535067749,49.09129019165 69.06335067749,49.27529019165 69.06335067749,49.48329019165 Z" style="font-style:normal;font-variant:normal;font-weight:normal;font-stretch:normal;font-size:16px;font-family:Lato;-inkscape-font-specification:Lato;fill:#f2f5ff;fill-opacity:0.9411764706" id="path861" />
    <path d="M 74.45110067749,51.95529019165 Q 75.33910067749,51.95529019165 76.05110067749,52.25129019165 76.76310067749,52.54729019165 77.26710067749,53.09129019165 77.77110067749,53.63529019165 78.03510067749,54.41129019165 78.30710067749,55.17929019165 78.30710067749,56.13129019165 78.30710067749,57.09129019165 78.03510067749,57.85929019165 77.77110067749,58.62729019165 77.26710067749,59.17129019165 76.76310067749,59.71529019165 76.05110067749,60.01129019165 75.33910067749,60.29929019165 74.45110067749,60.29929019165 73.55510067749,60.29929019165 72.83510067749,60.01129019165 72.12310067749,59.71529019165 71.61910067749,59.17129019165 71.11510067749,58.62729019165 70.84310067749,57.85929019165 70.57910067749,57.09129019165 70.57910067749,56.13129019165 70.57910067749,55.17929019165 70.84310067749,54.41129019165 71.11510067749,53.63529019165 71.61910067749,53.09129019165 72.12310067749,52.54729019165 72.83510067749,52.25129019165 73.55510067749,51.95529019165 74.45110067749,51.95529019165 Z M 74.45110067749,59.18729019165 Q 75.65110067749,59.18729019165 76.24310067749,58.38729019165 76.83510067749,57.57929019165 76.83510067749,56.13929019165 76.83510067749,54.69129019165 76.24310067749,53.88329019165 75.65110067749,53.07529019165 74.45110067749,53.07529019165 73.84310067749,53.07529019165 73.38710067749,53.28329019165 72.93910067749,53.49129019165 72.63510067749,53.88329019165 72.33910067749,54.27529019165 72.18710067749,54.85129019165 72.04310067749,55.41929019165 72.04310067749,56.13929019165 72.04310067749,57.57929019165 72.63510067749,58.38729019165 73.23510067749,59.18729019165 74.45110067749,59.18729019165 Z" style="font-style:normal;font-variant:normal;font-weight:normal;font-stretch:normal;font-size:16px;font-family:Lato;-inkscape-font-specification:Lato;fill:#f2f5ff;fill-opacity:0.9411764706" id="path863" />
    <path d="M 80.09760067749,60.18729019165 V 52.08329019165 H 80.95360067749 Q 81.25760067749,52.08329019165 81.32960067749,52.37929019165 L 81.44160067749,53.25929019165 Q 81.96960067749,52.67529019165 82.62560067749,52.31529019165 83.28160067749,51.95529019165 84.13760067749,51.95529019165 84.80160067749,51.95529019165 85.30560067749,52.17929019165 85.81760067749,52.39529019165 86.15360067749,52.80329019165 86.49760067749,53.20329019165 86.67360067749,53.77129019165 86.84960067749,54.33929019165 86.84960067749,55.02729019165 V 60.18729019165 H 85.41760067749 V 55.02729019165 Q 85.41760067749,54.10729019165 84.99360067749,53.60329019165 84.57760067749,53.09129019165 83.72160067749,53.09129019165 83.08160067749,53.09129019165 82.52960067749,53.39529019165 81.98560067749,53.69929019165 81.52960067749,54.21929019165 V 60.18729019165 Z" style="font-style:normal;font-variant:normal;font-weight:normal;font-stretch:normal;font-size:16px;font-family:Lato;-inkscape-font-specification:Lato;fill:#f2f5ff;fill-opacity:0.9411764706" id="path865" />
  </g>
</svg>
